{
  "images": [
    {
      "filename": "40x40.png",
      "size": "20x20",
      "scale": "2x",
      "idiom": "iphone"
    },
    {
      "filename": "Icon60.png",
      "size": "20x20",
      "scale": "3x",
      "idiom": "iphone"
    },
    {
      "filename": "58x58.png",
      "size": "29x29",
      "scale": "2x",
      "idiom": "iphone"
    },
    {
      "filename": "87x87.png",
      "size": "29x29",
      "scale": "3x",
      "idiom": "iphone"
    },
    {
      "filename": "80x80.png",
      "size": "40x40",
      "scale": "2x",
      "idiom": "iphone"
    },
    {
      "filename": "120x120.png",
      "size": "40x40",
      "scale": "3x",
      "idiom": "iphone"
    },
    {
      "filename": "120x120.png",
      "size": "60x60",
      "scale": "2x",
      "idiom": "iphone"
    },
    {
      "filename": "180x180.png",
      "size": "60x60",
      "scale": "3x",
      "idiom": "iphone"
    },
    {
      "filename": "Icon20.png",
      "size": "20x20",
      "scale": "1x",
      "idiom": "ipad"
    },
    {
      "filename": "40x40.png",
      "size": "20x20",
      "scale": "2x",
      "idiom": "ipad"
    },
    {
      "filename": "29x29.png",
      "size": "29x29",
      "scale": "1x",
      "idiom": "ipad"
    },
    {
      "filename": "58x58.png",
      "size": "29x29",
      "scale": "2x",
      "idiom": "ipad"
    },
    {
      "filename": "40x40.png",
      "size": "40x40",
      "scale": "1x",
      "idiom": "ipad"
    },
    {
      "filename": "80x80.png",
      "size": "40x40",
      "scale": "2x",
      "idiom": "ipad"
    },
    {
      "filename": "167x167.png",
      "size": "83.5x83.5",
      "scale": "2x",
      "idiom": "ipad"
    },
    {
      "filename": "76x76.png",
      "size": "76x76",
      "scale": "1x",
      "idiom": "ipad"
    },
    {
      "filename": "152x152.png",
      "size": "76x76",
      "scale": "2x",
      "idiom": "ipad"
    },
    {
      "filename": "1024x1024_no_alpha.png",
      "size": "1024x1024",
      "scale": "1x",
      "idiom": "ios-marketing"
    },
    {
      "size": "60x60",
      "scale": "2x",
      "idiom": "car"
    },
    {
      "size": "60x60",
      "scale": "3x",
      "idiom": "car"
    },
    {
      "role": "notificationCenter",
      "size": "24x24",
      "subtype": "38mm",
      "scale": "2x",
      "idiom": "watch"
    },
    {
      "role": "notificationCenter",
      "size": "27.5x27.5",
      "subtype": "42mm",
      "scale": "2x",
      "idiom": "watch"
    },
    {
      "role": "companionSettings",
      "size": "29x29",
      "scale": "2x",
      "idiom": "watch"
    },
    {
      "role": "companionSettings",
      "size": "29x29",
      "scale": "3x",
      "idiom": "watch"
    },
    {
      "role": "appLauncher",
      "size": "40x40",
      "subtype": "38mm",
      "scale": "2x",
      "idiom": "watch"
    },
    {
      "role": "appLauncher",
      "size": "44x44",
      "subtype": "40mm",
      "scale": "2x",
      "idiom": "watch"
    },
    {
      "role": "appLauncher",
      "size": "50x50",
      "subtype": "44mm",
      "scale": "2x",
      "idiom": "watch"
    },
    {
      "role": "quickLook",
      "size": "86x86",
      "subtype": "38mm",
      "scale": "2x",
      "idiom": "watch"
    },
    {
      "role": "quickLook",
      "size": "98x98",
      "subtype": "42mm",
      "scale": "2x",
      "idiom": "watch"
    },
    {
      "role": "quickLook",
      "size": "108x108",
      "subtype": "44mm",
      "scale": "2x",
      "idiom": "watch"
    },
    {
      "size": "1024x1024",
      "scale": "1x",
      "idiom": "watch-marketing"
    },
    {
      "size": "16x16",
      "scale": "1x",
      "idiom": "mac"
    },
    {
      "size": "16x16",
      "scale": "2x",
      "idiom": "mac"
    },
    {
      "size": "32x32",
      "scale": "1x",
      "idiom": "mac"
    },
    {
      "size": "32x32",
      "scale": "2x",
      "idiom": "mac"
    },
    {
      "size": "128x128",
      "scale": "1x",
      "idiom": "mac"
    },
    {
      "size": "128x128",
      "scale": "2x",
      "idiom": "mac"
    },
    {
      "size": "256x256",
      "scale": "1x",
      "idiom": "mac"
    },
    {
      "size": "256x256",
      "scale": "2x",
      "idiom": "mac"
    },
    {
      "size": "512x512",
      "scale": "1x",
      "idiom": "mac"
    },
    {
      "size": "512x512",
      "scale": "2x",
      "idiom": "mac"
    }
  ],
  "info": {
    "version": 1,
    "author": "xcode"
  }
}